[gd_scene load_steps=2 format=2]

[ext_resource path="res://resources/MusicShufflePlayer.gdns" type="Script" id=1]

[node name="MusicShufflePlayer" type="Node"]
script = ExtResource( 1 )

[node name="AudioStreamPlayer" type="AudioStreamPlayer" parent="."]
pause_mode = 2
[connection signal="finished" from="AudioStreamPlayer" to="." method="play_next_track"]
