[gd_scene load_steps=2 format=2]

[ext_resource path="res://resources/PausedEmitter.gdns" type="Script" id=1]


[node name="PausedEmitter" type="Node"]
pause_mode = 2
script = ExtResource( 1 )
__meta__ = {
"_editor_description_": "Just a simple node that emits its signal every _process call, even when the tree is paused."
}
